{
    "_id": "601ccc169bcd482ee8fa2c9a",
    "name": "AMD Ryzen 5 3600",
    "description": "Ryzen 5 CPU built on the Zen 2 Architecture",
    "price": 8000,
    "stocks": 200,
    "isActive": true,
    "SKU": "AMD-Z2R5-3600",
    "dateTimeCreated": "2020-03-15T15:00:00.00Z"
}

{
    "_id": "601ccc169bcd482ee8fa2c9b",
    "name": "AMD Ryzen 5 2600",
    "description": "Ryzen 5 CPU built on the Zen+ Architecture",
    "price": 6000,
    "stocks": 200,
    "isActive": true,
    "SKU": "AMD-ZPR5-2600",
    "dateTimeCreated": "2020-03-15T15:00:00.00Z"
}

{
    "_id": "601ccc169bcd482ee8fa2c9c",
    "name": "AMD Ryzen 5 5600G",
    "description": "Ryzen 5 APU built on the Zen 3 Architecture",
    "price": 14000,
    "stocks": 200,
    "isActive": true,
    "SKU": "AMD-Z3R5-5600G",
    "dateTimeCreated": "2020-03-15T15:00:00.00Z"
}